…
The output data can be extracted from the dispersion model object…

``` r
# Get a tibble containing the model results
dispersion_tbl <- dispersion_model %>% get_output_tbl()
```

…and the data is conveniently supplied as a tibble object:

``` r
dispersion_tbl
#> # A tibble: 13,860 x 5
#>    particle_i  hour   lat   lon height
#>    <chr>      <int> <dbl> <dbl>  <dbl>
#>  1 00001          1  48.9 -123.    152
#>  2 00002          1  48.9 -123.    289
#>  3 00003          1  48.9 -123.    297
#>  4 00004          1  49.0 -123.     53
#>  5 00005          1  48.9 -123.    804
#>  6 00006          1  49.0 -123.     40
#>  7 00007          1  48.9 -123.    754
#>  8 00008          1  48.9 -123.    146
#>  9 00009          1  48.9 -123.    427
#> 10 00010          1  48.9 -123.    375
#> # … with 13,850 more rows
```
…
